8 Polynomial Effects – Advanced Modeling and Reproducibility for Educational Scientists
…
# Load libraries
library(broom)
library(educate) 
library(lmtest)
library(patchwork)
library(tidyverse)

# Read in data
mn = read_csv(file = "https://raw.githubusercontent.com/zief0002/fluffy-ants/main/data/mn-schools.csv")

# View data
mn

# A tibble: 33 × 6
      id name                               grad public   sat tuition
   <dbl> <chr>                             <dbl>  <dbl> <dbl>   <dbl>
 1     1 Augsburg College                   65.2      0  10.3    39.3
 2     3 Bethany Lutheran College           52.6      0  10.6    30.5
 3     4 Bethel University, Saint Paul, MN  73.3      0  11.4    39.4
 4     5 Carleton College                   92.6      0  14      54.3
 5     6 College of Saint Benedict          81.1      0  11.8    43.2
 6     7 Concordia College at Moorhead      69.4      0  11.4    36.6
 7     8 Concordia University-Saint Paul    47.9      0   9.9    37.8
 8     9 Crossroads College                 26.9      0   9.7    25.3
 9    10 Crown College                      51.3      0  10.3    33.2
10    11 Gustavus Adolphus College          81.7      0  12.2    43.8
# ℹ 23 more rows
…
So the quadratic term, \(x^2\) is a product of x times itself. Recall that products are how we express interactions. Thus the quadratic term of \(x^2\) is really the interaction of x with itself. To model this, we simply (1) create the product term, and (2) include the product term and all constituent main-effects in the regression model.

# Create quadratic term in the data
mn = mn |>
  mutate(
    sat_quadratic = sat * sat
  )

# View data
mn

# A tibble: 33 × 7
      id name                            grad public   sat tuition sat_quadratic
   <dbl> <chr>                          <dbl>  <dbl> <dbl>   <dbl>         <dbl>
 1     1 Augsburg College                65.2      0  10.3    39.3         106. 
 2     3 Bethany Lutheran College        52.6      0  10.6    30.5         113. 
 3     4 Bethel University, Saint Paul…  73.3      0  11.4    39.4         131. 
 4     5 Carleton College                92.6      0  14      54.3         196  
 5     6 College of Saint Benedict       81.1      0  11.8    43.2         140. 
 6     7 Concordia College at Moorhead   69.4      0  11.4    36.6         131. 
 7     8 Concordia University-Saint Pa…  47.9      0   9.9    37.8          98.0
 8     9 Crossroads College              26.9      0   9.7    25.3          94.1
 9    10 Crown College                   51.3      0  10.3    33.2         106. 
10    11 Gustavus Adolphus College       81.7      0  12.2    43.8         150. 
# ℹ 23 more rows
…
