11 Log-Transforming the Outcome – Advanced Modeling and Reproducibility for Educational Scientists
…
# Read in data
carbon = read_csv(file = "https://raw.githubusercontent.com/zief0002/fluffy-ants/main/data/carbon.csv")

# View data
carbon

# A tibble: 189 × 5
   country             region      co2 wealth urbanization
   <chr>               <chr>     <dbl>  <dbl>        <dbl>
 1 Afghanistan         Asia      0.254   1.07        3.35 
 2 Albania             Europe    1.59    3.75        1.32 
 3 Algeria             Africa    3.69    3.54        2.81 
 4 Angola              Africa    1.12    2.71        4.31 
 5 Antigua and Barbuda Americas  5.88    4.36        0.432
 6 Argentina           Americas  4.41    4.49        1.15 
 7 Armenia             Europe    1.89    3.72        0.309
 8 Australia           Oceania  16.9     5.60        1.66 
 9 Austria             Europe    7.75    5.82        0.836
10 Azerbaijan          Europe    3.7     3.79        1.47 
# ℹ 179 more rows
…
11.3.1 Log-Transforming Variables

For our purposes, we need to log-transform each value of the Y attribute, namely the CO2 values in our data. Here, we will log-transform the CO2 values (using base-2). To do this we create a new column called l2co2 using the mutate() function.

# Create base-2 log-transformed CO2 values
carbon = carbon |>
  mutate(
    l2co2 = log(co2, base = 2)
    )

# View data
carbon

# A tibble: 189 × 6
   country             region      co2 wealth urbanization  l2co2
   <chr>               <chr>     <dbl>  <dbl>        <dbl>  <dbl>
 1 Afghanistan         Asia      0.254   1.07        3.35  -1.98 
 2 Albania             Europe    1.59    3.75        1.32   0.669
 3 Algeria             Africa    3.69    3.54        2.81   1.88 
 4 Angola              Africa    1.12    2.71        4.31   0.163
 5 Antigua and Barbuda Americas  5.88    4.36        0.432  2.56 
 6 Argentina           Americas  4.41    4.49        1.15   2.14 
 7 Armenia             Europe    1.89    3.72        0.309  0.918
 8 Australia           Oceania  16.9     5.60        1.66   4.08 
 9 Austria             Europe    7.75    5.82        0.836  2.95 
10 Azerbaijan          Europe    3.7     3.79        1.47   1.89 
# ℹ 179 more rows
…
That is, we can regress the base-10 log-transformed values of Y onto X. To do this, we initially create a new column in the data that includes the base-10 logs of the carbon dioxide emission values. We can then use those as the outcome in our lm().

# Create base-10 log-transformed CO2 values
carbon = carbon |>
  mutate(
    l10co2 = log(co2, base = 10)
    )

# View data
carbon

# A tibble: 189 × 7
   country             region      co2 wealth urbanization  l2co2  l10co2
   <chr>               <chr>     <dbl>  <dbl>        <dbl>  <dbl>   <dbl>
 1 Afghanistan         Asia      0.254   1.07        3.35  -1.98  -0.595 
 2 Albania             Europe    1.59    3.75        1.32   0.669  0.201 
 3 Algeria             Africa    3.69    3.54        2.81   1.88   0.567 
 4 Angola              Africa    1.12    2.71        4.31   0.163  0.0492
 5 Antigua and Barbuda Americas  5.88    4.36        0.432  2.56   0.769 
 6 Argentina           Americas  4.41    4.49        1.15   2.14   0.644 
 7 Armenia             Europe    1.89    3.72        0.309  0.918  0.276 
 8 Australia           Oceania  16.9     5.60        1.66   4.08   1.23  
 9 Austria             Europe    7.75    5.82        0.836  2.95   0.889 
10 Azerbaijan          Europe    3.7     3.79        1.47   1.89   0.568 
# ℹ 179 more rows
…
That is, we can regress the natural log-transformed values of Y onto X. To do this, we initially create a new column in the data that includes the natural logs of the carbon dioxide emission values. We can then use those as the outcome in our lm().

# Create natural log-transformed CO2 values
carbon = carbon |>
  mutate(
    lnco2 = log(co2)
    )

# View data
carbon

# A tibble: 189 × 8
   country             region      co2 wealth urbanization  l2co2  l10co2  lnco2
   <chr>               <chr>     <dbl>  <dbl>        <dbl>  <dbl>   <dbl>  <dbl>
 1 Afghanistan         Asia      0.254   1.07        3.35  -1.98  -0.595  -1.37 
 2 Albania             Europe    1.59    3.75        1.32   0.669  0.201   0.464
 3 Algeria             Africa    3.69    3.54        2.81   1.88   0.567   1.31 
 4 Angola              Africa    1.12    2.71        4.31   0.163  0.0492  0.113
 5 Antigua and Barbuda Americas  5.88    4.36        0.432  2.56   0.769   1.77 
 6 Argentina           Americas  4.41    4.49        1.15   2.14   0.644   1.48 
 7 Armenia             Europe    1.89    3.72        0.309  0.918  0.276   0.637
 8 Australia           Oceania  16.9     5.60        1.66   4.08   1.23    2.83 
 9 Austria             Europe    7.75    5.82        0.836  2.95   0.889   2.05 
10 Azerbaijan          Europe    3.7     3.79        1.47   1.89   0.568   1.31 
# ℹ 179 more rows
…
# Create dummy variables for world region
carbon = carbon |>
  mutate(
    africa = if_else(region == "Africa", 1, 0),
    asia = if_else(region == "Asia", 1, 0),
    americas = if_else(region == "Americas", 1, 0),
    europe = if_else(region == "Europe", 1, 0),
    oceania = if_else(region == "Oceania", 1, 0),
  )

# View data
carbon

# A tibble: 189 × 13
   country  region    co2 wealth urbanization  l2co2  l10co2  lnco2 africa  asia
   <chr>    <chr>   <dbl>  <dbl>        <dbl>  <dbl>   <dbl>  <dbl>  <dbl> <dbl>
 1 Afghani… Asia    0.254   1.07        3.35  -1.98  -0.595  -1.37       0     1
 2 Albania  Europe  1.59    3.75        1.32   0.669  0.201   0.464      0     0
 3 Algeria  Africa  3.69    3.54        2.81   1.88   0.567   1.31       1     0
 4 Angola   Africa  1.12    2.71        4.31   0.163  0.0492  0.113      1     0
 5 Antigua… Ameri…  5.88    4.36        0.432  2.56   0.769   1.77       0     0
 6 Argenti… Ameri…  4.41    4.49        1.15   2.14   0.644   1.48       0     0
 7 Armenia  Europe  1.89    3.72        0.309  0.918  0.276   0.637      0     0
 8 Austral… Ocean… 16.9     5.60        1.66   4.08   1.23    2.83       0     0
 9 Austria  Europe  7.75    5.82        0.836  2.95   0.889   2.05       0     0
10 Azerbai… Europe  3.7     3.79        1.47   1.89   0.568   1.31       0     0
# ℹ 179 more rows
# ℹ 3 more variables: americas <dbl>, europe <dbl>, oceania <dbl>
…
