15 More Logistic Regression – Advanced Modeling and Reproducibility for Educational Scientists
…
# Read in data and create dummy variable for categorical variables
grad = read_csv(file = "https://raw.githubusercontent.com/zief0002/fluffy-ants/main/data/graduation.csv") |>
  mutate(
    got_degree = if_else(degree == "Yes", 1, 0),
    is_firstgen = if_else(first_gen == "Yes", 1, 0),
    is_nontrad = if_else(non_traditional == "Yes", 1, 0),
  )

# View data
grad

# A tibble: 2,344 × 10
   student degree   act scholarship ap_courses first_gen non_traditional
     <dbl> <chr>  <dbl>       <dbl>      <dbl> <chr>     <chr>          
 1       1 Yes       21         0            0 No        No             
 2       2 Yes       19         0            0 No        No             
 3       3 Yes       27         0            0 Yes       No             
 4       4 Yes       25         0.5          0 Yes       No             
 5       5 No        28         0           17 Yes       No             
 6       6 Yes       21         0            0 No        Yes            
 7       7 Yes       27         0            8 Yes       No             
 8       8 No        20         0            0 No        No             
 9       9 Yes       26         0            0 Yes       No             
10      10 Yes       25         0            4 Yes       No             
# ℹ 2,334 more rows
# ℹ 3 more variables: got_degree <dbl>, is_firstgen <dbl>, is_nontrad <dbl>
…
