14 Logistic Regression – Advanced Modeling and Reproducibility for Educational Scientists
…
# Read in data and create dummy variable for outcome
grad = read_csv(file = "https://raw.githubusercontent.com/zief0002/fluffy-ants/main/data/graduation.csv") |>
  mutate(
    got_degree = if_else(degree == "Yes", 1, 0)
  )

# View data
grad

# A tibble: 2,344 × 8
   student degree   act scholarship ap_courses first_gen non_traditional
     <dbl> <chr>  <dbl>       <dbl>      <dbl> <chr>     <chr>          
 1       1 Yes       21         0            0 No        No             
 2       2 Yes       19         0            0 No        No             
 3       3 Yes       27         0            0 Yes       No             
 4       4 Yes       25         0.5          0 Yes       No             
 5       5 No        28         0           17 Yes       No             
 6       6 Yes       21         0            0 No        Yes            
 7       7 Yes       27         0            8 Yes       No             
 8       8 No        20         0            0 No        No             
 9       9 Yes       26         0            0 Yes       No             
10      10 Yes       25         0            4 Yes       No             
# ℹ 2,334 more rows
# ℹ 1 more variable: got_degree <dbl>
…
Below we show how to transform many such values using R.

# Create w values and transformed values
example = tibble(
  x = seq(from = -4, to = 4, by = 0.01)  # Set up values
  ) |>
  mutate(
    Lambda = 1 / (1 + exp(-x))  # Transform using logistic function
  )

# View data
example

# A tibble: 801 × 2
       x Lambda
   <dbl>  <dbl>
 1 -4    0.0180
 2 -3.99 0.0182
 3 -3.98 0.0183
 4 -3.97 0.0185
 5 -3.96 0.0187
 6 -3.95 0.0189
 7 -3.94 0.0191
 8 -3.93 0.0193
 9 -3.92 0.0195
10 -3.91 0.0196
# ℹ 791 more rows
…
Odds are a re-expression of the probabilities, and similarly log-odds (or logits) is a transformation of the odds onto the log scale. While the logistic regression is performed on the logits of Y, like any model where we have transformed variables to work in the model, we can back-transform when we present the results. In logistic regression we can present our results in logits, odds, or probabilities. Because of the transformations, each of these will have a different relationship with the predictor.

For example, let’s re-examine the plot of the “S”-shaped example data. This depicted the relationship between a predictor X and the probability of Y. We could also depict the relationship between X and the odds of Y, or the relationship between X and the log-odds of Y.

# Create odds and logit values
example = example |>
  mutate(
    Odds = Lambda / (1 - Lambda),  # Transform to odds
    Logits = log(Odds)
  )

# View data
example

# A tibble: 801 × 4
       x Lambda   Odds Logits
   <dbl>  <dbl>  <dbl>  <dbl>
 1 -4    0.0180 0.0183  -4   
 2 -3.99 0.0182 0.0185  -3.99
 3 -3.98 0.0183 0.0187  -3.98
 4 -3.97 0.0185 0.0189  -3.97
 5 -3.96 0.0187 0.0191  -3.96
 6 -3.95 0.0189 0.0193  -3.95
 7 -3.94 0.0191 0.0194  -3.94
 8 -3.93 0.0193 0.0196  -3.93
 9 -3.92 0.0195 0.0198  -3.92
10 -3.91 0.0196 0.0200  -3.91
# ℹ 791 more rows
…
