13 Linear Probability Model – Advanced Modeling and Reproducibility for Educational Scientists
…
# Load libraries
library(broom)
library(corrr)
library(educate)
library(patchwork)
library(tidyverse)

# Read in data
grad = read_csv(file = "https://raw.githubusercontent.com/zief0002/fluffy-ants/main/data/graduation.csv")

# View data
grad

# A tibble: 2,344 × 7
   student degree   act scholarship ap_courses first_gen non_traditional
     <dbl> <chr>  <dbl>       <dbl>      <dbl> <chr>     <chr>          
 1       1 Yes       21         0            0 No        No             
 2       2 Yes       19         0            0 No        No             
 3       3 Yes       27         0            0 Yes       No             
 4       4 Yes       25         0.5          0 Yes       No             
 5       5 No        28         0           17 Yes       No             
 6       6 Yes       21         0            0 No        Yes            
 7       7 Yes       27         0            8 Yes       No             
 8       8 No        20         0            0 No        No             
 9       9 Yes       26         0            0 Yes       No             
10      10 Yes       25         0            4 Yes       No             
# ℹ 2,334 more rows
…
Figure 13.1: Barplot showing graduation status for the sample.

The analysis suggests that most students in the sample (73%) tend to graduate. Because we ultimately want to use this variable in our analysis, we will need to create a numeric indicator variable for use in those analysis by dummy-coding the degree variable.

# Create dummy-coded degree variable
grad = grad |>
  mutate(
    got_degree = if_else(degree == "Yes", 1, 0)
  )

# View data
grad

# A tibble: 2,344 × 8
   student degree   act scholarship ap_courses first_gen non_traditional
     <dbl> <chr>  <dbl>       <dbl>      <dbl> <chr>     <chr>          
 1       1 Yes       21         0            0 No        No             
 2       2 Yes       19         0            0 No        No             
 3       3 Yes       27         0            0 Yes       No             
 4       4 Yes       25         0.5          0 Yes       No             
 5       5 No        28         0           17 Yes       No             
 6       6 Yes       21         0            0 No        Yes            
 7       7 Yes       27         0            8 Yes       No             
 8       8 No        20         0            0 No        No             
 9       9 Yes       26         0            0 Yes       No             
10      10 Yes       25         0            4 Yes       No             
# ℹ 2,334 more rows
# ℹ 1 more variable: got_degree <dbl>
…
