13 Introduction to Mixed-Effects Models – Advanced Modeling and Reproducibility for Educational Scientists
…
# Load libraries
library(broom.mixed) #for tidy, glance, and augment with lmer models
library(educate)
library(lme4) #for fitting mixed-effects models
library(patchwork)
library(tidyverse)

# Import data
mpls = read_csv(file = "https://raw.githubusercontent.com/zief0002/fluffy-ants/main/data/minneapolis.csv")

# View data
mpls

# A tibble: 88 × 5
   student_id reading_score grade special_ed attendance
        <dbl>         <dbl> <dbl> <chr>           <dbl>
 1          1           172     5 No               0.94
 2          1           185     6 No               0.94
 3          1           179     7 No               0.94
 4          1           194     8 No               0.94
 5          2           200     5 No               0.91
 6          2           210     6 No               0.91
 7          2           209     7 No               0.91
 8          2           210     8 No               0.91
 9          3           191     5 No               0.97
10          3           199     6 No               0.97
# ℹ 78 more rows
…
Mixed-effects regression conceptually fits a global model (like the one above) AND a set of student-specific models, one for each student. The student-specific model is akin to fitting a regression model for each student separately. Below I show the results (for five of the students) of fitting a different regression model to each student, but keep in mind that this is not actually what happens; it is only to help you understand.

# Fit student models
student_models = mpls |>
  group_by(student_id) |>
  summarize(
    tidy(lm(reading_score  ~ 1 + grade))
    ) |>
  ungroup()

# View coefficients from fitted models
student_models

# A tibble: 44 × 6
   student_id term        estimate std.error statistic  p.value
        <dbl> <chr>          <dbl>     <dbl>     <dbl>    <dbl>
 1          1 (Intercept)   144.      18.8        7.64 0.0167  
 2          1 grade           6        2.85       2.11 0.170   
 3          2 (Intercept)   188.      11.2       16.9  0.00350 
 4          2 grade           2.90     1.69       1.71 0.229   
 5          3 (Intercept)   153.       6.98      21.9  0.00209 
 6          3 grade           7.60     1.06       7.18 0.0188  
 7          4 (Intercept)   206.       6.33      32.6  0.000938
 8          4 grade          -1.60     0.959     -1.67 0.237   
 9          5 (Intercept)   200.       6.69      29.9  0.00112 
10          5 grade           1.70     1.01       1.68 0.236   
# ℹ 34 more rows
…
\[
\mathbf{Fixed\mbox{-}Effects~Equation:}~~\hat{\mathrm{Reading~Score}_{ij}} = 184.27 + 4.36(\mathrm{Grade}_{ij})
\]

Note that the notation now includes two subscripts. The i subscript now indicates the ith time point (grade level), and the new j subscript indicates Student J. We interpret these coefficients from the fixed-effects equation exactly like lm() coefficients. Here,

The reading achievement score for students in Grade 0 is 184.27, on average.

Each one-grade difference is associated with a 4.36-point difference in reading achievement score, on average.

To view the student-specific random-effects, we again use the tidy() function from the {broom.mixed} package, but this time with the argument effects="ran_vals".

tidy(lmer.1, effects = "ran_vals")

# A tibble: 22 × 6
   effect   group      level term        estimate std.error
   <chr>    <chr>      <chr> <chr>          <dbl>     <dbl>
 1 ran_vals student_id 1     (Intercept)   -29.5       2.73
 2 ran_vals student_id 2     (Intercept)    -5.27      2.73
 3 ran_vals student_id 3     (Intercept)   -10.4       2.73
 4 ran_vals student_id 4     (Intercept)   -16.3       2.73
 5 ran_vals student_id 5     (Intercept)    -1.36      2.73
 6 ran_vals student_id 6     (Intercept)   -17.0       2.73
 7 ran_vals student_id 7     (Intercept)    -3.07      2.73
 8 ran_vals student_id 8     (Intercept)   -19.2       2.73
 9 ran_vals student_id 9     (Intercept)   -48.1       2.73
10 ran_vals student_id 10    (Intercept)    -2.58      2.73
# ℹ 12 more rows
…
This fitted equation for the fixed-effects part of the model (i.e., the global model) is:

\[
\mathbf{Fixed\mbox{-}Effects~Equation:}~~\hat{\mathrm{Reading~Score}_{ij}} = 184.27 + 4.36(\mathrm{Grade}_{ij})
\]

The fixed-effects did not change much from our initial model (sometimes they do). They have the same interpretations as in lmer.1. To view the student-specific random-effects, we use the tidy() function with effects="ran_vals". We pipe this output into arrange() to order the output by student ID values.

tidy(lmer.2, effects = "ran_vals") |>
  arrange(level)

# A tibble: 44 × 6
   effect   group      level term        estimate std.error
   <chr>    <chr>      <chr> <chr>          <dbl>     <dbl>
 1 ran_vals student_id 1     (Intercept)  -38.5       10.3 
 2 ran_vals student_id 1     grade          1.34       1.55
 3 ran_vals student_id 10    (Intercept)   -3.79      10.3 
 4 ran_vals student_id 10    grade          0.182      1.55
 5 ran_vals student_id 11    (Intercept)    8.68      10.3 
 6 ran_vals student_id 11    grade          1.34       1.55
 7 ran_vals student_id 12    (Intercept)   15.0       10.3 
 8 ran_vals student_id 12    grade          1.62       1.55
 9 ran_vals student_id 13    (Intercept)   29.2       10.3 
10 ran_vals student_id 13    grade         -1.43       1.55
# ℹ 34 more rows
…
