12 LMER: Other Random-Effects and Covariates – Advanced Modeling and Reproducibility for Educational Scientists
…
# Import data
mpls = read_csv("https://raw.githubusercontent.com/zief0002/fluffy-ants/main/data/minneapolis.csv")

# View data
mpls

# A tibble: 88 × 5
   student_id reading_score grade special_ed attendance
        <dbl>         <dbl> <dbl> <chr>           <dbl>
 1          1           172     5 No               0.94
 2          1           185     6 No               0.94
 3          1           179     7 No               0.94
 4          1           194     8 No               0.94
 5          2           200     5 No               0.91
 6          2           210     6 No               0.91
 7          2           209     7 No               0.91
 8          2           210     8 No               0.91
 9          3           191     5 No               0.97
10          3           199     6 No               0.97
# ℹ 78 more rows
…
The coefficient interpretations are:

The predicted average reading score for all students at the initial measurement occasion (in the 5th grade) is 206.

Each subsequent grade-level is associated with a 4.36-point change in reading score, on average.

The fixed-effects did not change much as a result of allowing individual students to have different growth rates. We can also write the student specific fitted equations. Each student specific fitted equation is based on the fixed-effects AND the student-specific random-effects.

# Obtain random effects
tidy(lmer.c, effects = "ran_vals")

# A tibble: 44 × 6
   effect   group      level term        estimate std.error
   <chr>    <chr>      <chr> <chr>          <dbl>     <dbl>
 1 ran_vals student_id 1     (Intercept)   -31.8       3.12
 2 ran_vals student_id 2     (Intercept)    -3.89      3.12
 3 ran_vals student_id 3     (Intercept)   -13.9       3.12
 4 ran_vals student_id 4     (Intercept)   -10.5       3.12
 5 ran_vals student_id 5     (Intercept)     1.32      3.12
 6 ran_vals student_id 6     (Intercept)   -15.9       3.12
 7 ran_vals student_id 7     (Intercept)    -5.00      3.12
 8 ran_vals student_id 8     (Intercept)   -15.8       3.12
 9 ran_vals student_id 9     (Intercept)   -55.2       3.12
10 ran_vals student_id 10    (Intercept)    -2.87      3.12
# ℹ 34 more rows
…
