13 Linear Mixed-Effects Models: Alternative Representations and Assumptions – Advanced Modeling and Reproducibility for Educational Scientists
…
# Load libraries
library(broom.mixed) #for tidy, glance, and augment functions for lme4 models
library(educate)
library(lme4) #for fitting mixed-effects models
library(patchwork)
library(tidyverse)

# Read in data
mpls = read_csv("https://raw.githubusercontent.com/zief0002/fluffy-ants/main/data/minneapolis.csv")

# View data
mpls

# A tibble: 88 × 5
   student_id reading_score grade special_ed attendance
        <dbl>         <dbl> <dbl> <chr>           <dbl>
 1          1           172     5 No               0.94
 2          1           185     6 No               0.94
 3          1           179     7 No               0.94
 4          1           194     8 No               0.94
 5          2           200     5 No               0.91
 6          2           210     6 No               0.91
 7          2           209     7 No               0.91
 8          2           210     8 No               0.91
 9          3           191     5 No               0.97
10          3           199     6 No               0.97
# ℹ 78 more rows
…
# Fit Model 2
lmer.2 = lmer(reading_score ~ 1 + I(grade-5) + special_ed + (1 + I(grade-5) | student_id),
              data = mpls, REML = FALSE)

13.6.1 Evaluate Assumptions about the Level-1 Residuals

We will evaluate the Level-1 residuals in the exact same way we evalauted the residuals from a fixed-effects (LM) analysis. The augment() function from the {broom.mixed} package produces the Level-1 residuals and fitted values.

# Augment the model to get the Level-1 residuals and fitted values
out_2 = augment(lmer.2)

# View
out_2

# A tibble: 88 × 15
   reading_score `I(grade - 5)` special_ed student_id .fitted  .resid  .hat
           <dbl>       <I<dbl>> <fct>           <dbl>   <dbl>   <dbl> <dbl>
 1           172              0 No                  1    175. -2.52   0.561
 2           185              1 No                  1    180.  4.86   0.282
 3           179              2 No                  1    186. -6.76   0.280
 4           194              3 No                  1    191.  2.62   0.554
 5           200              0 No                  2    202. -2.25   0.561
 6           210              1 No                  2    206.  4.34   0.282
 7           209              2 No                  2    209. -0.0705 0.280
 8           210              3 No                  2    212. -2.48   0.554
 9           191              0 No                  3    192. -1.25   0.561
10           199              1 No                  3    199.  0.143  0.282
# ℹ 78 more rows
# ℹ 8 more variables: .cooksd <dbl>, .fixed <dbl>, .mu <dbl>, .offset <dbl>,
#   .sqrtXwt <dbl>, .sqrtrwt <dbl>, .weights <dbl>, .wtres <dbl>
…
Figure 13.1: Plots to evaluate the level-1 residuals.

Based on the plots, the distributional assumptions for the Level-1 residuals seem reasonably satisfied. The density plot suggests that the normality assumption is tenable. The scatterplot shows symmetry around the \(Y=0\) line (average residual is 0), and that the data are consistent with the assumption of homoskedasticity.

13.6.2 Assumptions about the Random-Effects

We also need to examine the assumptions for any random-effects included in the model. For this course, we will examine the normality assumption. In our example that means we need to examine the normality assumption about the intercept and grade-level random-effects. To do this we need to extract the random-effects from the model into a data frame so we can use ggplot2 functions to evaluate normality.

# Obtain a data frame of the random-effects
level_2 = tidy(lmer.2, effects = "ran_vals")

# View random-effects
level_2

# A tibble: 44 × 6
   effect   group      level term        estimate std.error
   <chr>    <chr>      <chr> <chr>          <dbl>     <dbl>
 1 ran_vals student_id 1     (Intercept)  -33.7        3.12
 2 ran_vals student_id 2     (Intercept)   -5.99       3.12
 3 ran_vals student_id 3     (Intercept)  -16.0        3.12
 4 ran_vals student_id 4     (Intercept)  -12.6        3.12
 5 ran_vals student_id 5     (Intercept)   -0.799      3.12
 6 ran_vals student_id 6     (Intercept)  -17.9        3.12
 7 ran_vals student_id 7     (Intercept)   -7.12       3.12
 8 ran_vals student_id 8     (Intercept)   -2.14       3.12
 9 ran_vals student_id 9     (Intercept)  -41.4        3.12
10 ran_vals student_id 10    (Intercept)   -4.99       3.12
# ℹ 34 more rows
…
