17 LMER: Average Change Over Time – Advanced Modeling and Reproducibility for Educational Scientists
…
# Read in data
vocabulary = read_csv(file = "https://raw.githubusercontent.com/zief0002/fluffy-ants/main/data/vocabulary.csv")

# View data
vocabulary

# A tibble: 64 × 6
      id vocab_08 vocab_09 vocab_10 vocab_11 female
   <dbl>    <dbl>    <dbl>    <dbl>    <dbl>  <dbl>
 1     1     1.75     2.6      3.76     3.68      1
 2     2     0.9      2.47     2.44     3.43      0
 3     3     0.8      0.93     0.4      2.27      0
 4     4     2.42     4.15     4.56     4.21      1
 5     5    -1.31    -1.31    -0.66    -2.22      0
 6     6    -1.56     1.67     0.18     2.33      0
 7     7     1.09     1.5      0.52     2.33      0
 8     8    -1.92     1.03     0.5      3.04      0
 9     9    -1.61     0.29     0.73     3.24      0
10    10     2.47     3.64     2.87     5.38      1
# ℹ 54 more rows

We will use these data to explore the change in vocabulary over time (longitudinal variation in the vocabulary scores). In most longitudinal analyses, the primary goal is to examine the mean change of some outcome over time. To do this we will focus on the following research question: (1) What is the growth pattern in the average vocabulary score over time?

17.1 Data Structure: Tidy/Long Data vs. Wide Data

Before doing any analysis of the data, it is worth understanding the structure of the data. There are two common structures for repeated measures data: tidy/long structured data and wide structured data.

In tidy/long structured data, there is a single column per variable. For example, the outcome variable (vocabulary scores) would be organized into a single column. Similarly, the predictor that designates time (grade-level in our example) would also be organized into a single column.

In wide structured data, the outcome variable (or predictor variables) is typically spread out over multiple columns. Often there are not columns that include data on the time predictor; instead this information is typically embedded in the column name.

The vocabulary data is currently structured as wide data; the vocabulary scores are organized into four separate columns and the information about grade-level (the time predictor) is embedded in the variable names (e.g., vocab_08 indicates 8th-grade). The same data are presented below in the tidy/long structure.

# A tibble: 256 × 4
      id female grade    vocab_score
   <dbl>  <dbl> <chr>          <dbl>
 1     1      1 vocab_08        1.75
 2     1      1 vocab_09        2.6 
 3     1      1 vocab_10        3.76
 4     1      1 vocab_11        3.68
 5     2      0 vocab_08        0.9 
 6     2      0 vocab_09        2.47
 7     2      0 vocab_10        2.44
 8     2      0 vocab_11        3.43
 9     3      0 vocab_08        0.8 
10     3      0 vocab_09        0.93
# ℹ 246 more rows
…
pivot_longer() (wide \(\rightarrow\) tidy/long), and

pivot_wider() (tidy/long \(\rightarrow\) wide).

Below, I show the code for going from the wide structured data (vocabulary) to the tidy/long structure.

# Convert from wide to long structured data
vocabulary_long = vocabulary |>
  pivot_longer(cols = vocab_08:vocab_11, names_to = "grade", values_to = "vocab_score") |>
  arrange(id, grade)

# View data
vocabulary_long

# A tibble: 256 × 4
      id female grade    vocab_score
   <dbl>  <dbl> <chr>          <dbl>
 1     1      1 vocab_08        1.75
 2     1      1 vocab_09        2.6 
 3     1      1 vocab_10        3.76
 4     1      1 vocab_11        3.68
 5     2      0 vocab_08        0.9 
 6     2      0 vocab_09        2.47
 7     2      0 vocab_10        2.44
 8     2      0 vocab_11        3.43
 9     3      0 vocab_08        0.8 
10     3      0 vocab_09        0.93
# ℹ 246 more rows
…
\[
\hat{\mathrm{Vocabulary~Score}_{ij}} = 2.53
\]

We interpret coefficients from the fixed-effects model the same way we interpret coefficients produced from the lm() output. For example,

The predicted average vocabulary language score for all students at all time points is 2.53.

We can also write the student specific fitted equations. Each student specific fitted equation is based on the fixed-effects AND the student-specific random-effect. To obtain the student-specific random-effects we use the tidy() function from the {broom.mixed} package with the argument effects="ran_vals".

# Obtain random effects
tidy(lmer.0, effects = "ran_vals")

# A tibble: 64 × 6
   effect   group level term        estimate std.error
   <chr>    <chr> <chr> <chr>          <dbl>     <dbl>
 1 ran_vals id    1     (Intercept)    0.359     0.629
 2 ran_vals id    2     (Intercept)   -0.193     0.629
 3 ran_vals id    3     (Intercept)   -1.24      0.629
 4 ran_vals id    4     (Intercept)    1.13      0.629
 5 ran_vals id    5     (Intercept)   -3.38      0.629
 6 ran_vals id    6     (Intercept)   -1.63      0.629
 7 ran_vals id    7     (Intercept)   -1.02      0.629
 8 ran_vals id    8     (Intercept)   -1.62      0.629
 9 ran_vals id    9     (Intercept)   -1.62      0.629
10 ran_vals id    10    (Intercept)    0.915     0.629
# ℹ 54 more rows
…
\[
\begin{split}
\hat{\mathrm{Vocabulary~Score}_{i1}} &= 2.53 + 0.359 \\[1ex]\hat{\mathrm{Vocabulary~Score}_{i1}} &= 2.53 + 0.359 \\[1ex]
&= 2.89
\end{split}
\]

The predicted average vocabulary language score for Student 1 at all time points is 2.889.

The argument effects="ran_coefs" in the tidy() function gives the student-specific intercepts directly.

# Obtain student-specific coefficients
tidy(lmer.0, effects = "ran_coefs")

# A tibble: 64 × 5
   effect    group level term        estimate
   <chr>     <chr> <chr> <chr>          <dbl>
 1 ran_coefs id    1     (Intercept)    2.89 
 2 ran_coefs id    2     (Intercept)    2.34 
 3 ran_coefs id    3     (Intercept)    1.29 
 4 ran_coefs id    4     (Intercept)    3.66 
 5 ran_coefs id    5     (Intercept)   -0.852
 6 ran_coefs id    6     (Intercept)    0.907
 7 ran_coefs id    7     (Intercept)    1.52 
 8 ran_coefs id    8     (Intercept)    0.913
 9 ran_coefs id    9     (Intercept)    0.913
10 ran_coefs id    10    (Intercept)    3.45 
# ℹ 54 more rows
…
Then, we join (or merge) the tidy/long data with the lookup table. This adds the quantitative variables (with the correct mapping) to our tidy data. There are, of course, other ways to accomplish the same thing. For example a mutate() using the case_when() function could also be used to create this mapping.

# Join the data with the lookup table
vocabulary_long = vocabulary_long |>
  left_join(lookup_table, by = "grade")

# View data
vocabulary_long

# A tibble: 256 × 5
      id female grade    vocab_score grade_quant
   <dbl>  <dbl> <chr>          <dbl>       <dbl>
 1     1      1 vocab_08        1.75           8
 2     1      1 vocab_09        2.6            9
 3     1      1 vocab_10        3.76          10
 4     1      1 vocab_11        3.68          11
 5     2      0 vocab_08        0.9            8
 6     2      0 vocab_09        2.47           9
 7     2      0 vocab_10        2.44          10
 8     2      0 vocab_11        3.43          11
 9     3      0 vocab_08        0.8            8
10     3      0 vocab_09        0.93           9
# ℹ 246 more rows
…
Between-Student Variance (\(\hat\sigma^2_{0}\))

The unexplained variance that is between-students has increased from 2.96 to 3.18. This means that by including grade in the model we have increased the amount of unexplained variation that is between students by 7.8%; a mathematical artifact of the estimation process.

These values are identical to the variance components obtained from the previous model. That is because the model we fitted is mostly identical to the uncentered quantitative model. The only difference is in the intercept value, which now is interpretable since a grade of 0 on the centered scale corresponds to the initial time point in the data; it is no longer extrapolation.

17.6.1 Student-Specific Profiles

Obtaining the coefficients for the student specific growth curves we get:

# Get student estimated parameters
tidy(lmer.3, effects = "ran_coefs") |>
  arrange(as.numeric(level))

# A tibble: 128 × 5
   effect    group level term               estimate
   <chr>     <chr> <chr> <chr>                 <dbl>
 1 ran_coefs id    1     (Intercept)          1.80  
 2 ran_coefs id    1     I(grade_quant - 8)   0.747 
 3 ran_coefs id    2     (Intercept)          1.20  
 4 ran_coefs id    2     I(grade_quant - 8)   0.747 
 5 ran_coefs id    3     (Intercept)          0.0743
 6 ran_coefs id    3     I(grade_quant - 8)   0.747 
 7 ran_coefs id    4     (Intercept)          2.63  
 8 ran_coefs id    4     I(grade_quant - 8)   0.747 
 9 ran_coefs id    5     (Intercept)         -2.24  
10 ran_coefs id    5     I(grade_quant - 8)   0.747 
# ℹ 118 more rows
…
Figure 17.6: Predicted change in vocabulary score as a function of grade-level.

17.7.4 Student-Specific Profiles

Obtaining the coefficients for the student specific growth curves we get:

# Get student estimated parameters
tidy(lmer.5, effects = "ran_coefs") |>
  arrange(as.numeric(level))

# A tibble: 128 × 5
   effect    group level term                       estimate
   <chr>     <chr> <chr> <chr>                         <dbl>
 1 ran_coefs id    1     (Intercept)                   1.60 
 2 ran_coefs id    1     log((grade_quant - 8) + 1)    1.67 
 3 ran_coefs id    2     (Intercept)                   1.00 
 4 ran_coefs id    2     log((grade_quant - 8) + 1)    1.67 
 5 ran_coefs id    3     (Intercept)                  -0.137
 6 ran_coefs id    3     log((grade_quant - 8) + 1)    1.67 
 7 ran_coefs id    4     (Intercept)                   2.43 
 8 ran_coefs id    4     log((grade_quant - 8) + 1)    1.67 
 9 ran_coefs id    5     (Intercept)                  -2.46 
10 ran_coefs id    5     log((grade_quant - 8) + 1)    1.67 
# ℹ 118 more rows
…
